lv_area.h:73:20:lv_area_copy	16	static
lv_area.h:83:26:lv_area_get_width	16	static
lv_area.h:93:26:lv_area_get_height	16	static
lv_obj.c:75:6:lv_init	8	static
lv_obj.c:131:12:lv_obj_create	40	static
lv_obj.c:375:10:lv_obj_del	40	static
lv_obj.c:459:6:lv_obj_del_async	16	static
lv_obj.c:468:6:lv_obj_clean	24	static
lv_obj.c:485:6:lv_obj_invalidate	48	static
lv_obj.c:532:6:lv_obj_set_parent	24	static
lv_obj.c:569:6:lv_obj_move_foreground	24	static
lv_obj.c:590:6:lv_obj_move_background	24	static
lv_obj.c:617:6:lv_obj_set_pos	32	static
lv_obj.c:664:6:lv_obj_set_x	16	static
lv_obj.c:674:6:lv_obj_set_y	16	static
lv_obj.c:685:6:lv_obj_set_size	32	static
lv_obj.c:734:6:lv_obj_set_width	16	static
lv_obj.c:744:6:lv_obj_set_height	16	static
lv_obj.c:757:6:lv_obj_align	48	static
lv_obj.c:902:6:lv_obj_align_origo	48	static
lv_obj.c:1046:6:lv_obj_realign	24	static
lv_obj.c:1065:6:lv_obj_set_auto_realign	16	static
lv_obj.c:1100:6:lv_obj_set_ext_click_area	24	static
lv_obj.c:1128:6:lv_obj_set_style	16	static
lv_obj.c:1143:6:lv_obj_refresh_style	16	static
lv_obj.c:1155:6:lv_obj_report_style_mod	24	static
lv_obj.c:1182:6:lv_obj_set_hidden	24	static
lv_obj.c:1199:6:lv_obj_set_click	16	static
lv_obj.c:1210:6:lv_obj_set_top	16	static
lv_obj.c:1220:6:lv_obj_set_drag	16	static
lv_obj.c:1231:6:lv_obj_set_drag_dir	16	static
lv_obj.c:1243:6:lv_obj_set_drag_throw	16	static
lv_obj.c:1254:6:lv_obj_set_drag_parent	16	static
lv_obj.c:1264:6:lv_obj_set_parent_event	16	static
lv_obj.c:1274:6:lv_obj_set_opa_scale_enable	16	static
lv_obj.c:1287:6:lv_obj_set_opa_scale	16	static
lv_obj.c:1298:6:lv_obj_set_protect	16	static
lv_obj.c:1308:6:lv_obj_clear_protect	16	static
lv_obj.c:1320:6:lv_obj_set_event_cb	16	static
lv_obj.c:1332:10:lv_event_send	32	static
lv_obj.c:1351:10:lv_event_send_func	48	static
lv_obj.c:1404:14:lv_event_get_data	4	static
lv_obj.c:1415:6:lv_obj_set_signal_cb	16	static
lv_obj.c:1425:6:lv_signal_send	24	static
lv_obj.c:1435:6:lv_obj_set_design_cb	16	static
lv_obj.c:1450:8:lv_obj_allocate_ext_attr	16	static
lv_obj.c:1461:6:lv_obj_refresh_ext_draw_pad	16	static
lv_obj.c:1478:12:lv_obj_get_screen	24	static
lv_obj.c:1496:13:lv_obj_get_disp	32	static
lv_obj.c:1528:12:lv_obj_get_parent	16	static
lv_obj.c:1540:12:lv_obj_get_child	24	static
lv_obj.c:1560:12:lv_obj_get_child_back	24	static
lv_obj.c:1578:10:lv_obj_count_children	24	static
lv_obj.c:1592:10:lv_obj_count_children_recursive	24	static
lv_obj.c:1615:6:lv_obj_get_coords	16	static
lv_obj.c:1625:6:lv_obj_get_inner_coords	24	static
lv_obj.c:1642:12:lv_obj_get_x	24	static
lv_obj.c:1656:12:lv_obj_get_y	24	static
lv_obj.c:1670:12:lv_obj_get_width	16	static
lv_obj.c:1680:12:lv_obj_get_height	16	static
lv_obj.c:1690:12:lv_obj_get_width_fit	24	static
lv_obj.c:1702:12:lv_obj_get_height_fit	24	static
lv_obj.c:1714:6:lv_obj_get_auto_realign	16	static
lv_obj.c:1729:12:lv_obj_get_ext_click_pad_left	16	static
lv_obj.c:1746:12:lv_obj_get_ext_click_pad_right	16	static
lv_obj.c:1763:12:lv_obj_get_ext_click_pad_top	16	static
lv_obj.c:1780:12:lv_obj_get_ext_click_pad_bottom	16	static
lv_obj.c:1797:12:lv_obj_get_ext_draw_pad	16	static
lv_obj.c:1811:20:lv_obj_get_style	32	static
lv_obj.c:1859:6:lv_obj_get_hidden	16	static
lv_obj.c:1869:6:lv_obj_get_click	16	static
lv_obj.c:1879:6:lv_obj_get_top	16	static
lv_obj.c:1889:6:lv_obj_get_drag	16	static
lv_obj.c:1899:15:lv_obj_get_drag_dir	16	static
lv_obj.c:1909:6:lv_obj_get_drag_throw	16	static
lv_obj.c:1919:6:lv_obj_get_drag_parent	16	static
lv_obj.c:1929:6:lv_obj_get_parent_event	16	static
lv_obj.c:1939:10:lv_obj_get_opa_scale_enable	16	static
lv_obj.c:1949:10:lv_obj_get_opa_scale	24	static
lv_obj.c:1966:9:lv_obj_get_protect	16	static
lv_obj.c:1977:6:lv_obj_is_protected	16	static
lv_obj.c:1987:16:lv_obj_get_signal_cb	16	static
lv_obj.c:1997:16:lv_obj_get_design_cb	16	static
lv_obj.c:2007:15:lv_obj_get_event_cb	16	static
lv_obj.c:2022:8:lv_obj_get_ext_attr	16	static
lv_obj.c:2033:6:lv_obj_get_type	56	static
lv_obj.c:2093:8:lv_obj_get_group	16	static
lv_obj.c:2103:6:lv_obj_is_focused	16	static
lv_obj.c:2117:13:lv_obj_del_async_cb	16	static
lv_obj.c:2131:13:lv_obj_design	56	static
lv_obj.c:2177:17:lv_obj_signal	40	static
lv_obj.c:2206:13:refresh_children_position	24	static
lv_obj.c:2225:13:report_style_mod_core	24	static
lv_obj.c:2244:13:refresh_children_style	24	static
lv_obj.c:2263:13:delete_children	40	static
lv_obj.c:2329:13:lv_event_mark_deleted	24	static
