main_backup.c:85:6:HAL_ADC_ConvCpltCallback	24	static
main_backup.c:90:6:HAL_ADC_ConvHalfCpltCallback	24	static
main_backup.c:95:6:HAL_GPIO_EXTI_Callback	16	static
main_backup.c:105:5:main	48	static
main_backup.c:196:6:SystemClock_Config	88	static
main_backup.c:247:13:MX_ADC1_Init	24	static
main_backup.c:294:13:MX_DAC_Init	16	static
main_backup.c:329:13:MX_TIM2_Init	32	static
main_backup.c:371:13:MX_USART2_UART_Init	8	static
main_backup.c:402:13:MX_DMA_Init	16	static
main_backup.c:423:13:MX_GPIO_Init	48	static
main_backup.c:501:6:HAL_TIM_PeriodElapsedCallback	16	static
main_backup.c:518:6:Error_Handler	4	static
