stm32f4xx_hal_msp.c:67:6:HAL_MspInit	16	static
stm32f4xx_hal_msp.c:91:6:HAL_ADC_MspInit	48	static
stm32f4xx_hal_msp.c:143:6:HAL_ADC_MspDeInit	16	static
stm32f4xx_hal_msp.c:173:6:HAL_DAC_MspInit	48	static
stm32f4xx_hal_msp.c:228:6:HAL_DAC_MspDeInit	16	static
stm32f4xx_hal_msp.c:261:6:HAL_SPI_MspInit	48	static
stm32f4xx_hal_msp.c:305:6:HAL_SPI_MspDeInit	16	static
stm32f4xx_hal_msp.c:336:6:HAL_TIM_Base_MspInit	24	static
stm32f4xx_hal_msp.c:358:6:HAL_TIM_Base_MspDeInit	16	static
stm32f4xx_hal_msp.c:380:6:HAL_UART_MspInit	48	static
stm32f4xx_hal_msp.c:416:6:HAL_UART_MspDeInit	16	static
