lv_font.h:110:23:lv_font_get_line_height	16	static
lv_area.h:83:26:lv_area_get_width	16	static
lv_cont.h:121:20:lv_cont_set_fit2	24	static
lv_cont.h:132:20:lv_cont_set_fit	24	static
lv_mbox.c:65:12:lv_mbox_create	40	static
lv_mbox.c:140:6:lv_mbox_add_btns	24	static
lv_mbox.c:175:6:lv_mbox_set_text	24	static
lv_mbox.c:188:6:lv_mbox_set_anim_time	24	static
lv_mbox.c:205:6:lv_mbox_start_auto_close	56	static
lv_mbox.c:259:6:lv_mbox_stop_auto_close	16	static
lv_mbox.c:274:6:lv_mbox_set_style	32	static
lv_mbox.c:296:6:lv_mbox_set_recolor	24	static
lv_mbox.c:312:14:lv_mbox_get_text	24	static
lv_mbox.c:325:10:lv_mbox_get_active_btn	24	static
lv_mbox.c:340:14:lv_mbox_get_active_btn_text	24	static
lv_mbox.c:354:10:lv_mbox_get_anim_time	24	static
lv_mbox.c:371:20:lv_mbox_get_style	24	static
lv_mbox.c:395:6:lv_mbox_get_recolor	24	static
lv_mbox.c:410:12:lv_mbox_get_btnm	24	static
lv_mbox.c:427:17:lv_mbox_signal	64	static
lv_mbox.c:495:13:mbox_realign	40	static
lv_mbox.c:517:13:lv_mbox_close_ready_cb	16	static
lv_mbox.c:523:13:lv_mbox_default_event_cb	24	static
lv_mbox.c:533:13:lv_mbox_btnm_event_cb	24	static
